Inst_R/simulation/qsim/Atividade14.msim.vcd
$comment
	File created using the following command:
		vcd file Atividade14.msim.vcd -direction
$end
$date
	Thu Oct 24 19:36:47 2019
$end
$version
	ModelSim Version 10.5b
$end
$timescale
	1ps
$end

$scope module ula_vhd_vec_tst $end
$var wire 1 ! a [7] $end
$var wire 1 " a [6] $end
$var wire 1 # a [5] $end
$var wire 1 $ a [4] $end
$var wire 1 % a [3] $end
$var wire 1 & a [2] $end
$var wire 1 ' a [1] $end
$var wire 1 ( a [0] $end
$var wire 1 ) b [7] $end
$var wire 1 * b [6] $end
$var wire 1 + b [5] $end
$var wire 1 , b [4] $end
$var wire 1 - b [3] $end
$var wire 1 . b [2] $end
$var wire 1 / b [1] $end
$var wire 1 0 b [0] $end
$var wire 1 1 func_ula [5] $end
$var wire 1 2 func_ula [4] $end
$var wire 1 3 func_ula [3] $end
$var wire 1 4 func_ula [2] $end
$var wire 1 5 func_ula [1] $end
$var wire 1 6 func_ula [0] $end
$var wire 1 7 result [7] $end
$var wire 1 8 result [6] $end
$var wire 1 9 result [5] $end
$var wire 1 : result [4] $end
$var wire 1 ; result [3] $end
$var wire 1 < result [2] $end
$var wire 1 = result [1] $end
$var wire 1 > result [0] $end

$scope module i1 $end
$var wire 1 ? gnd $end
$var wire 1 @ vcc $end
$var wire 1 A unknown $end
$var wire 1 B devoe $end
$var wire 1 C devclrn $end
$var wire 1 D devpor $end
$var wire 1 E ww_devoe $end
$var wire 1 F ww_devclrn $end
$var wire 1 G ww_devpor $end
$var wire 1 H ww_a [7] $end
$var wire 1 I ww_a [6] $end
$var wire 1 J ww_a [5] $end
$var wire 1 K ww_a [4] $end
$var wire 1 L ww_a [3] $end
$var wire 1 M ww_a [2] $end
$var wire 1 N ww_a [1] $end
$var wire 1 O ww_a [0] $end
$var wire 1 P ww_b [7] $end
$var wire 1 Q ww_b [6] $end
$var wire 1 R ww_b [5] $end
$var wire 1 S ww_b [4] $end
$var wire 1 T ww_b [3] $end
$var wire 1 U ww_b [2] $end
$var wire 1 V ww_b [1] $end
$var wire 1 W ww_b [0] $end
$var wire 1 X ww_func_ula [5] $end
$var wire 1 Y ww_func_ula [4] $end
$var wire 1 Z ww_func_ula [3] $end
$var wire 1 [ ww_func_ula [2] $end
$var wire 1 \ ww_func_ula [1] $end
$var wire 1 ] ww_func_ula [0] $end
$var wire 1 ^ ww_result [7] $end
$var wire 1 _ ww_result [6] $end
$var wire 1 ` ww_result [5] $end
$var wire 1 a ww_result [4] $end
$var wire 1 b ww_result [3] $end
$var wire 1 c ww_result [2] $end
$var wire 1 d ww_result [1] $end
$var wire 1 e ww_result [0] $end
$var wire 1 f \result[0]~output_o\ $end
$var wire 1 g \result[1]~output_o\ $end
$var wire 1 h \result[2]~output_o\ $end
$var wire 1 i \result[3]~output_o\ $end
$var wire 1 j \result[4]~output_o\ $end
$var wire 1 k \result[5]~output_o\ $end
$var wire 1 l \result[6]~output_o\ $end
$var wire 1 m \result[7]~output_o\ $end
$var wire 1 n \b[0]~input_o\ $end
$var wire 1 o \func_ula[4]~input_o\ $end
$var wire 1 p \func_ula[0]~input_o\ $end
$var wire 1 q \func_ula[1]~input_o\ $end
$var wire 1 r \func_ula[2]~input_o\ $end
$var wire 1 s \func_ula[3]~input_o\ $end
$var wire 1 t \Equal0~0_combout\ $end
$var wire 1 u \func_ula[5]~input_o\ $end
$var wire 1 v \Add1|auto_generated|_~0_combout\ $end
$var wire 1 w \a[0]~input_o\ $end
$var wire 1 x \Equal0~1_combout\ $end
$var wire 1 y \Add1|auto_generated|result_int[0]~1_cout\ $end
$var wire 1 z \Add1|auto_generated|result_int[1]~2_combout\ $end
$var wire 1 { \b[1]~input_o\ $end
$var wire 1 | \Add1|auto_generated|_~1_combout\ $end
$var wire 1 } \a[1]~input_o\ $end
$var wire 1 ~ \Add1|auto_generated|result_int[1]~3\ $end
$var wire 1 !! \Add1|auto_generated|result_int[2]~4_combout\ $end
$var wire 1 "! \b[2]~input_o\ $end
$var wire 1 #! \Add1|auto_generated|_~2_combout\ $end
$var wire 1 $! \a[2]~input_o\ $end
$var wire 1 %! \Add1|auto_generated|result_int[2]~5\ $end
$var wire 1 &! \Add1|auto_generated|result_int[3]~6_combout\ $end
$var wire 1 '! \b[3]~input_o\ $end
$var wire 1 (! \Add1|auto_generated|_~3_combout\ $end
$var wire 1 )! \a[3]~input_o\ $end
$var wire 1 *! \Add1|auto_generated|result_int[3]~7\ $end
$var wire 1 +! \Add1|auto_generated|result_int[4]~8_combout\ $end
$var wire 1 ,! \b[4]~input_o\ $end
$var wire 1 -! \Add1|auto_generated|_~4_combout\ $end
$var wire 1 .! \a[4]~input_o\ $end
$var wire 1 /! \Add1|auto_generated|result_int[4]~9\ $end
$var wire 1 0! \Add1|auto_generated|result_int[5]~10_combout\ $end
$var wire 1 1! \b[5]~input_o\ $end
$var wire 1 2! \Add1|auto_generated|_~5_combout\ $end
$var wire 1 3! \a[5]~input_o\ $end
$var wire 1 4! \Add1|auto_generated|result_int[5]~11\ $end
$var wire 1 5! \Add1|auto_generated|result_int[6]~12_combout\ $end
$var wire 1 6! \b[6]~input_o\ $end
$var wire 1 7! \Add1|auto_generated|_~6_combout\ $end
$var wire 1 8! \a[6]~input_o\ $end
$var wire 1 9! \Add1|auto_generated|result_int[6]~13\ $end
$var wire 1 :! \Add1|auto_generated|result_int[7]~14_combout\ $end
$var wire 1 ;! \b[7]~input_o\ $end
$var wire 1 <! \Add1|auto_generated|_~7_combout\ $end
$var wire 1 =! \a[7]~input_o\ $end
$var wire 1 >! \Add1|auto_generated|result_int[7]~15\ $end
$var wire 1 ?! \Add1|auto_generated|result_int[8]~16_combout\ $end
$upscope $end
$upscope $end
$enddefinitions $end
#0
$dumpvars
0?
1@
xA
1B
1C
1D
1E
1F
1G
0f
0g
0h
1i
1j
1k
1l
1m
0n
0o
0p
0q
0r
0s
1t
0u
0v
0w
0x
1y
0z
0{
0|
0}
0~
0!!
1"!
1#!
1$!
1%!
0&!
1'!
1(!
0)!
0*!
1+!
0,!
0-!
0.!
0/!
10!
01!
02!
03!
14!
15!
06!
07!
08!
09!
1:!
0;!
0<!
0=!
1>!
1?!
0!
0"
0#
0$
0%
1&
0'
0(
0)
0*
0+
0,
1-
1.
0/
00
01
02
03
04
05
06
17
18
19
1:
1;
0<
0=
0>
0H
0I
0J
0K
0L
1M
0N
0O
0P
0Q
0R
0S
1T
1U
0V
0W
0X
0Y
0Z
0[
0\
0]
1^
1_
1`
1a
1b
0c
0d
0e
$end
#10000
16
1]
1p
0t
#20000
06
15
0]
1\
1q
0p
#30000
16
1]
1p
#40000
06
05
14
0]
0\
1[
1r
0q
0p
#50000
16
1]
1p
#60000
06
15
0]
1\
1q
0p
#70000
16
1]
1p
#80000
06
05
04
13
0]
0\
0[
1Z
1s
0r
0q
0p
#90000
16
1]
1p
#100000
06
15
0]
1\
1q
0p
#110000
16
1]
1p
#120000
06
05
14
0]
0\
1[
1r
0q
0p
#130000
16
1]
1p
#140000
06
15
0]
1\
1q
0p
#150000
16
1]
1p
#160000
06
05
04
03
12
0]
0\
0[
0Z
1Y
1o
0s
0r
0q
0p
1t
#170000
16
1]
1p
0t
#180000
06
15
0]
1\
1q
0p
#190000
16
1]
1p
#200000
06
05
14
0]
0\
1[
1r
0q
0p
#210000
16
1]
1p
#220000
06
15
0]
1\
1q
0p
#230000
16
1]
1p
#240000
06
05
04
13
0]
0\
0[
1Z
1s
0r
0q
0p
#250000
16
1]
1p
#260000
06
15
0]
1\
1q
0p
#270000
16
1]
1p
#280000
06
05
14
0]
0\
1[
1r
0q
0p
#290000
16
1]
1p
#300000
06
15
0]
1\
1q
0p
#310000
16
1]
1p
#320000
06
05
04
03
02
11
0]
0\
0[
0Z
0Y
1X
1u
0o
0s
0r
0q
0p
1t
1v
1x
1|
0#!
0(!
1-!
12!
17!
1<!
0?!
0:!
05!
00!
0+!
1/!
1&!
1!!
0%!
0y
1z
1~
0!!
0z
0&!
10!
1f
1g
1h
0i
0j
0k
0l
0m
1e
1d
1c
0b
0a
0`
0_
0^
1j
0h
0f
0g
1>
1=
1<
0;
0:
09
08
07
1a
0c
0e
0d
0>
0=
0<
1:
#330000
16
1]
1p
0t
0v
0x
0|
1#!
1(!
0-!
02!
07!
0<!
1?!
1:!
15!
00!
04!
1+!
0/!
1&!
1*!
1!!
1y
1z
0z
0~
0+!
10!
14!
05!
19!
0:!
0>!
15!
09!
0!!
1%!
1f
1g
1h
1i
0j
1k
1l
1m
0&!
0*!
1:!
1>!
0?!
1e
1d
1c
1b
0a
1`
1_
1^
0k
1j
0i
0f
1>
1=
1<
1;
0:
19
18
17
1?!
1+!
0`
1a
0b
0e
0g
1k
0l
0>
0;
1:
09
0d
1`
0_
0m
1l
0h
0=
19
08
0^
1_
0c
1i
1m
0<
18
07
1b
1^
1;
17
#340000
06
15
0]
1\
1q
0p
#350000
16
1]
1p
#360000
06
05
14
0]
0\
1[
1r
0q
0p
#370000
16
1]
1p
#380000
06
15
0]
1\
1q
0p
#390000
16
1]
1p
#400000
06
05
04
13
0]
0\
0[
1Z
1s
0r
0q
0p
#410000
16
1]
1p
#420000
06
15
0]
1\
1q
0p
#430000
16
1]
1p
#440000
06
05
14
0]
0\
1[
1r
0q
0p
#450000
16
1]
1p
#460000
06
15
0]
1\
1q
0p
#470000
16
1]
1p
#480000
06
05
04
03
12
0]
0\
0[
0Z
1Y
1o
0s
0r
0q
0p
1t
#490000
16
1]
1p
0t
#500000
06
15
0]
1\
1q
0p
#510000
16
1]
1p
#520000
06
05
14
0]
0\
1[
1r
0q
0p
#530000
16
1]
1p
#540000
06
15
0]
1\
1q
0p
#550000
16
1]
1p
#560000
06
05
04
13
0]
0\
0[
1Z
1s
0r
0q
0p
#570000
16
1]
1p
#580000
06
15
0]
1\
1q
0p
#590000
16
1]
1p
#600000
06
05
14
0]
0\
1[
1r
0q
0p
#610000
16
1]
1p
#620000
06
15
0]
1\
1q
0p
#630000
16
1]
1p
#640000
06
05
04
03
02
01
0]
0\
0[
0Z
0Y
0X
0u
0o
0s
0r
0q
0p
1t
#650000
16
1]
1p
0t
#660000
06
15
0]
1\
1q
0p
#670000
16
1]
1p
#680000
06
05
14
0]
0\
1[
1r
0q
0p
#690000
16
1]
1p
#700000
06
15
0]
1\
1q
0p
#710000
16
1]
1p
#720000
06
05
04
13
0]
0\
0[
1Z
1s
0r
0q
0p
#730000
16
1]
1p
#740000
06
15
0]
1\
1q
0p
#750000
16
1]
1p
#760000
06
05
14
0]
0\
1[
1r
0q
0p
#770000
16
1]
1p
#780000
06
15
0]
1\
1q
0p
#790000
16
1]
1p
#800000
06
05
04
03
12
0]
0\
0[
0Z
1Y
1o
0s
0r
0q
0p
1t
#810000
16
1]
1p
0t
#820000
06
15
0]
1\
1q
0p
#830000
16
1]
1p
#840000
06
05
14
0]
0\
1[
1r
0q
0p
#850000
16
1]
1p
#860000
06
15
0]
1\
1q
0p
#870000
16
1]
1p
#880000
06
05
04
13
0]
0\
0[
1Z
1s
0r
0q
0p
#890000
16
1]
1p
#900000
06
15
0]
1\
1q
0p
#910000
16
1]
1p
#920000
06
05
14
0]
0\
1[
1r
0q
0p
#930000
16
1]
1p
#940000
06
15
0]
1\
1q
0p
#950000
16
1]
1p
#960000
06
05
04
03
02
11
0]
0\
0[
0Z
0Y
1X
1u
0o
0s
0r
0q
0p
1t
1v
1x
1|
0#!
0(!
1-!
12!
17!
1<!
0?!
0:!
05!
00!
0+!
1/!
1&!
1!!
0%!
0y
1z
1~
0!!
0z
0&!
10!
1f
1g
1h
0i
0j
0k
0l
0m
1e
1d
1c
0b
0a
0`
0_
0^
1j
0h
0f
0g
1>
1=
1<
0;
0:
09
08
07
1a
0c
0e
0d
0>
0=
0<
1:
#970000
16
1]
1p
0t
0v
0x
0|
1#!
1(!
0-!
02!
07!
0<!
1?!
1:!
15!
00!
04!
1+!
0/!
1&!
1*!
1!!
1y
1z
0z
0~
0+!
10!
14!
05!
19!
0:!
0>!
15!
09!
0!!
1%!
1f
1g
1h
1i
0j
1k
1l
1m
0&!
0*!
1:!
1>!
0?!
1e
1d
1c
1b
0a
1`
1_
1^
0k
1j
0i
0f
1>
1=
1<
1;
0:
19
18
17
1?!
1+!
0`
1a
0b
0e
0g
1k
0l
0>
0;
1:
09
0d
1`
0_
0m
1l
0h
0=
19
08
0^
1_
0c
1i
1m
0<
18
07
1b
1^
1;
17
#980000
06
15
0]
1\
1q
0p
#990000
16
1]
1p
